3_combinational_logic/ex_01/simulation/qsim/dec_7s.msim.vcd
$comment
	File created using the following command:
		vcd file dec_7s.msim.vcd -direction
$end
$date
	Fri Apr 05 21:52:47 2024
$end
$version
	ModelSim Version 2020.1
$end
$timescale
	1ps
$end

$scope module dec_7s_vhd_vec_tst $end
$var wire 1 ! c_7s [6] $end
$var wire 1 " c_7s [5] $end
$var wire 1 # c_7s [4] $end
$var wire 1 $ c_7s [3] $end
$var wire 1 % c_7s [2] $end
$var wire 1 & c_7s [1] $end
$var wire 1 ' c_7s [0] $end
$var wire 1 ( cnt_i [3] $end
$var wire 1 ) cnt_i [2] $end
$var wire 1 * cnt_i [1] $end
$var wire 1 + cnt_i [0] $end

$scope module i1 $end
$var wire 1 , gnd $end
$var wire 1 - vcc $end
$var wire 1 . unknown $end
$var wire 1 / devoe $end
$var wire 1 0 devclrn $end
$var wire 1 1 devpor $end
$var wire 1 2 ww_devoe $end
$var wire 1 3 ww_devclrn $end
$var wire 1 4 ww_devpor $end
$var wire 1 5 ww_cnt_i [3] $end
$var wire 1 6 ww_cnt_i [2] $end
$var wire 1 7 ww_cnt_i [1] $end
$var wire 1 8 ww_cnt_i [0] $end
$var wire 1 9 ww_c_7s [6] $end
$var wire 1 : ww_c_7s [5] $end
$var wire 1 ; ww_c_7s [4] $end
$var wire 1 < ww_c_7s [3] $end
$var wire 1 = ww_c_7s [2] $end
$var wire 1 > ww_c_7s [1] $end
$var wire 1 ? ww_c_7s [0] $end
$var wire 1 @ \Mux6~0_combout\ $end
$var wire 1 A \Mux5~0_combout\ $end
$var wire 1 B \Mux4~0_combout\ $end
$var wire 1 C \Mux3~0_combout\ $end
$var wire 1 D \Mux2~0_combout\ $end
$var wire 1 E \Mux1~0_combout\ $end
$var wire 1 F \Mux0~0_combout\ $end
$var wire 1 G \cnt_i~combout\ [3] $end
$var wire 1 H \cnt_i~combout\ [2] $end
$var wire 1 I \cnt_i~combout\ [1] $end
$var wire 1 J \cnt_i~combout\ [0] $end
$var wire 1 K \ALT_INV_Mux0~0_combout\ $end
$var wire 1 L \ALT_INV_Mux1~0_combout\ $end
$var wire 1 M \ALT_INV_Mux2~0_combout\ $end
$var wire 1 N \ALT_INV_Mux3~0_combout\ $end
$var wire 1 O \ALT_INV_Mux4~0_combout\ $end
$var wire 1 P \ALT_INV_Mux5~0_combout\ $end
$upscope $end
$upscope $end
$enddefinitions $end
#0
$dumpvars
0,
1-
x.
1/
10
11
12
13
14
0@
0A
0B
0C
0D
0E
0F
1K
1L
1M
1N
1O
1P
0(
0)
0*
0+
1!
1"
1#
1$
1%
1&
0'
05
06
07
08
19
1:
1;
1<
1=
1>
0?
0G
0H
0I
0J
$end
#50000
1(
15
1G
1@
1?
1'
#100000
0(
1)
16
05
0G
1H
1B
1C
1F
0K
0N
0O
0=
0<
09
0%
0$
0!
#150000
1(
15
1G
0@
0B
0C
1D
1E
0F
1K
0L
0M
1N
1O
0?
1=
1<
0;
0:
19
0'
1%
1$
0#
0"
1!
#200000
0(
0)
1*
17
06
05
0G
0H
1I
1@
1A
0E
1L
0P
1?
0>
1:
1'
0&
1"
#250000
1(
15
1G
0A
1C
0D
1M
0N
1P
1>
0<
1;
1&
0$
1#
#300000
0(
1)
16
05
0G
1H
0C
1E
0L
1N
1<
0:
1$
0"
#350000
1(
15
1G
0@
1A
1B
1C
0E
1L
0N
0O
0P
0?
0>
0=
0<
1:
0'
0&
0%
0$
1"
#400000
0(
0)
0*
1+
18
07
06
05
0G
0H
0I
1J
1F
0K
09
0!
#450000
1(
15
1G
1@
0A
0F
1K
1P
1?
1>
19
1'
1&
1!
#500000
0(
1)
16
05
0G
1H
0C
1E
0L
1N
1<
0:
1$
0"
#550000
1(
15
1G
1A
0B
0E
1F
0K
1L
1O
0P
0>
1=
1:
09
0&
1%
1"
0!
#600000
0(
0)
1*
17
06
05
0G
0H
1I
1B
0F
1K
0O
0=
19
0%
1!
#650000
1(
15
1G
0A
0B
1E
1F
0K
0L
1O
1P
1>
1=
0:
09
1&
1%
0"
0!
#700000
0(
1)
16
05
0G
1H
0@
1A
1B
1C
0E
0F
1K
1L
0N
0O
0P
0?
0>
0=
0<
1:
19
0'
0&
0%
0$
1"
1!
#750000
1(
15
1G
0B
0C
1F
0K
1N
1O
1=
1<
09
1%
1$
0!
#800000
0(
0)
0*
0+
08
07
06
05
0G
0H
0I
0J
0A
0F
1K
1P
1>
19
1&
1!
#850000
1(
15
1G
1@
1?
1'
#900000
0(
1)
16
05
0G
1H
1B
1C
1F
0K
0N
0O
0=
0<
09
0%
0$
0!
#950000
1(
15
1G
0@
0B
0C
1D
1E
0F
1K
0L
0M
1N
1O
0?
1=
1<
0;
0:
19
0'
1%
1$
0#
0"
1!
