4_sequential_logic/ex2/latch_d_nand/simulation/qsim/latch_d_nand.msim.vcd
$comment
	File created using the following command:
		vcd file latch_d_nand.msim.vcd -direction
$end
$date
	Fri Apr 26 20:55:38 2024
$end
$version
	ModelSim Version 2020.1
$end
$timescale
	1ps
$end

$scope module latch_d_nand_vhd_vec_tst $end
$var wire 1 ! din $end
$var wire 1 " enable $end
$var wire 1 # q $end
$var wire 1 $ qn $end

$scope module i1 $end
$var wire 1 % gnd $end
$var wire 1 & vcc $end
$var wire 1 ' unknown $end
$var wire 1 ( devoe $end
$var wire 1 ) devclrn $end
$var wire 1 * devpor $end
$var wire 1 + ww_devoe $end
$var wire 1 , ww_devclrn $end
$var wire 1 - ww_devpor $end
$var wire 1 . ww_enable $end
$var wire 1 / ww_din $end
$var wire 1 0 ww_q $end
$var wire 1 1 ww_qn $end
$var wire 1 2 \din~combout\ $end
$var wire 1 3 \enable~combout\ $end
$var wire 1 4 \q$latch~combout\ $end
$var wire 1 5 \qn$latch~combout\ $end
$upscope $end
$upscope $end
$enddefinitions $end
#0
$dumpvars
0!
0"
x#
x$
0%
1&
x'
1(
1)
1*
1+
1,
1-
0.
0/
x0
x1
02
03
x4
x5
$end
#50000
1"
1.
13
04
15
11
00
1$
0#
#100000
0"
0.
03
#150000
1"
1!
1.
1/
12
13
14
05
01
10
0$
1#
#200000
0"
0.
03
#250000
1"
1.
13
#300000
0"
0!
0.
0/
02
03
#350000
1"
1.
13
04
15
11
00
1$
0#
#400000
0"
0.
03
#450000
1"
1!
1.
1/
12
13
14
05
01
10
0$
1#
#500000
0"
0.
03
#550000
1"
1.
13
#600000
0"
0!
0.
0/
02
03
#650000
1"
1.
13
04
15
11
00
1$
0#
#700000
0"
0.
03
#750000
1"
1!
1.
1/
12
13
14
05
01
10
0$
1#
#800000
0"
0.
03
#850000
1"
1.
13
#900000
0"
0!
0.
0/
02
03
#950000
1"
1.
13
04
15
11
00
1$
0#
