4_sequential_logic/ex4/ex_a/simulation/qsim/flip_flop_d_positivo.msim.vcd
$comment
	File created using the following command:
		vcd file flip_flop_d_positivo.msim.vcd -direction
$end
$date
	Fri May 03 06:12:53 2024
$end
$version
	ModelSim Version 2020.1
$end
$timescale
	1ps
$end

$scope module flip_flop_d_positivo_vhd_vec_tst $end
$var wire 1 ! clk $end
$var wire 1 " clrn $end
$var wire 1 # d $end
$var wire 1 $ prn $end
$var wire 1 % q $end
$var wire 1 & qn $end

$scope module i1 $end
$var wire 1 ' gnd $end
$var wire 1 ( vcc $end
$var wire 1 ) unknown $end
$var wire 1 * devoe $end
$var wire 1 + devclrn $end
$var wire 1 , devpor $end
$var wire 1 - ww_devoe $end
$var wire 1 . ww_devclrn $end
$var wire 1 / ww_devpor $end
$var wire 1 0 ww_d $end
$var wire 1 1 ww_clk $end
$var wire 1 2 ww_prn $end
$var wire 1 3 ww_clrn $end
$var wire 1 4 ww_q $end
$var wire 1 5 ww_qn $end
$var wire 1 6 \clk~combout\ $end
$var wire 1 7 \d~combout\ $end
$var wire 1 8 \clrn~combout\ $end
$var wire 1 9 \prn~combout\ $end
$var wire 1 : \qstate~regout\ $end
$var wire 1 ; \ALT_INV_prn~combout\ $end
$var wire 1 < \ALT_INV_clrn~combout\ $end
$var wire 1 = \ALT_INV_qstate~regout\ $end
$upscope $end
$upscope $end
$enddefinitions $end
#0
$dumpvars
0!
0"
0#
0$
0%
1&
0'
1(
x)
1*
1+
1,
1-
1.
1/
00
01
02
03
04
15
06
07
08
09
0:
1;
1<
1=
$end
#35000
1!
11
16
#45000
1#
10
17
#70000
0!
01
06
#90000
0#
00
07
#100000
1"
13
18
0<
1:
0=
14
05
1%
0&
#105000
1!
11
16
#135000
1#
10
17
#140000
0!
01
06
#150000
1$
12
19
0;
#175000
1!
11
16
#180000
0#
00
07
#200000
0"
03
08
1<
0:
1=
04
15
0%
1&
#210000
0!
01
06
#225000
1#
10
17
#245000
1!
11
16
#270000
0#
00
07
#280000
0!
01
06
#300000
1"
0$
13
02
09
18
1;
0<
1:
0=
14
05
1%
0&
#315000
1!
1#
11
10
17
16
#350000
0!
01
06
#360000
0#
00
07
#385000
1!
11
16
#400000
0"
03
08
1<
0:
1=
04
15
0%
1&
#405000
1#
10
17
#420000
0!
01
06
#450000
0#
1$
00
12
19
07
0;
#455000
1!
11
16
#490000
0!
01
06
#495000
1#
10
17
#500000
1"
13
18
0<
#525000
1!
11
16
1:
0=
14
05
1%
0&
#540000
0#
00
07
#560000
0!
01
06
#585000
1#
10
17
#595000
1!
11
16
#600000
0"
0$
03
02
09
08
1;
1<
0:
1=
04
15
0%
1&
#630000
0!
0#
01
00
07
06
#665000
1!
11
16
#675000
1#
10
17
#700000
0!
1"
01
13
18
06
0<
1:
0=
14
05
1%
0&
#720000
0#
00
07
#735000
1!
11
16
#750000
1$
12
19
0;
#765000
1#
10
17
#770000
0!
01
06
#800000
0"
03
08
1<
0:
1=
04
15
0%
1&
#805000
1!
11
16
#810000
0#
00
07
#840000
0!
01
06
#855000
1#
10
17
#875000
1!
11
16
#900000
0#
1"
0$
00
13
02
09
18
07
1;
0<
1:
0=
14
05
1%
0&
#910000
0!
01
06
#945000
1!
1#
11
10
17
16
#980000
0!
01
06
#990000
0#
00
07
