2_logic_equations/p2tutorial_quartus/simulation/qsim/p2tutorial_quartus.msim.vcd
$comment
	File created using the following command:
		vcd file p2tutorial_quartus.msim.vcd -direction
$end
$date
	Fri Mar 22 21:32:58 2024
$end
$version
	ModelSim Version 2020.1
$end
$timescale
	1ps
$end

$scope module cinto_automotivo_vhd_vec_tst $end
$var wire 1 ! alarme $end
$var wire 1 " cinto_em_uso $end
$var wire 1 # ignicao_ligada $end
$var wire 1 $ motorista_presente $end

$scope module i1 $end
$var wire 1 % gnd $end
$var wire 1 & vcc $end
$var wire 1 ' unknown $end
$var wire 1 ( devoe $end
$var wire 1 ) devclrn $end
$var wire 1 * devpor $end
$var wire 1 + ww_devoe $end
$var wire 1 , ww_devclrn $end
$var wire 1 - ww_devpor $end
$var wire 1 . ww_motorista_presente $end
$var wire 1 / ww_cinto_em_uso $end
$var wire 1 0 ww_ignicao_ligada $end
$var wire 1 1 ww_alarme $end
$var wire 1 2 \motorista_presente~combout\ $end
$var wire 1 3 \cinto_em_uso~combout\ $end
$var wire 1 4 \ignicao_ligada~combout\ $end
$var wire 1 5 \alarme~0_combout\ $end
$upscope $end
$upscope $end
$enddefinitions $end
#0
$dumpvars
0!
0"
0#
0$
0%
1&
x'
1(
1)
1*
1+
1,
1-
0.
0/
00
01
02
03
04
05
$end
#50000
1"
1/
13
#100000
0"
1#
0/
10
14
03
#150000
1"
1/
13
#200000
0"
0#
1$
0/
00
1.
12
04
03
#250000
1"
1/
13
#300000
0"
1#
0/
10
14
03
15
11
1!
#350000
1"
1/
13
05
01
0!
#400000
0"
0#
0$
0/
00
0.
02
04
03
#450000
1"
1/
13
#500000
0"
1#
0/
10
14
03
#550000
1"
1/
13
#600000
0"
0#
1$
0/
00
1.
12
04
03
#650000
1"
1/
13
#700000
0"
1#
0/
10
14
03
15
11
1!
#750000
1"
1/
13
05
01
0!
#800000
0"
0#
0$
0/
00
0.
02
04
03
#850000
1"
1/
13
#900000
0"
1#
0/
10
14
03
#950000
1"
1/
13
