4_sequential_logic/ex1/simulation/qsim/latch_sr_nand.msim.vcd
$comment
	File created using the following command:
		vcd file latch_sr_nand.msim.vcd -direction
$end
$date
	Fri Apr 19 20:27:23 2024
$end
$version
	ModelSim Version 2020.1
$end
$timescale
	1ps
$end

$scope module latch_sr_nand_vhd_vec_tst $end
$var wire 1 ! Q $end
$var wire 1 " QN $end
$var wire 1 # R $end
$var wire 1 $ S $end

$scope module i1 $end
$var wire 1 % gnd $end
$var wire 1 & vcc $end
$var wire 1 ' unknown $end
$var wire 1 ( devoe $end
$var wire 1 ) devclrn $end
$var wire 1 * devpor $end
$var wire 1 + ww_devoe $end
$var wire 1 , ww_devclrn $end
$var wire 1 - ww_devpor $end
$var wire 1 . ww_S $end
$var wire 1 / ww_R $end
$var wire 1 0 ww_Q $end
$var wire 1 1 ww_QN $end
$var wire 1 2 \S~combout\ $end
$var wire 1 3 \R~combout\ $end
$var wire 1 4 \comb~0_combout\ $end
$var wire 1 5 \comb~1_combout\ $end
$var wire 1 6 \qstate~combout\ $end
$var wire 1 7 \ALT_INV_qstate~combout\ $end
$upscope $end
$upscope $end
$enddefinitions $end
#0
$dumpvars
x!
x"
0#
0$
0%
1&
x'
1(
1)
1*
1+
1,
1-
0.
0/
x0
x1
02
03
14
15
x6
x7
$end
#100000
1$
1.
12
04
06
17
00
11
0!
1"
#200000
0$
0.
02
14
#250000
1#
1/
13
05
16
07
10
01
1!
0"
#300000
1$
1.
12
15
#400000
0$
0.
02
05
#500000
1$
0#
1.
0/
03
12
04
15
06
17
00
11
0!
1"
#600000
0$
0.
02
14
#700000
1$
1.
12
04
#750000
1#
1/
13
14
#800000
0$
0.
02
05
16
07
10
01
1!
0"
#900000
1$
1.
12
15
