4_sequential_logic/ex3/flip_flop_d_negativo/simulation/qsim/flip_flop_d_negativo.msim.vcd
$comment
	File created using the following command:
		vcd file flip_flop_d_negativo.msim.vcd -direction
$end
$date
	Thu May 02 05:32:25 2024
$end
$version
	ModelSim Version 2020.1
$end
$timescale
	1ps
$end

$scope module flip_flop_d_negativo_vhd_vec_tst $end
$var wire 1 ! clk $end
$var wire 1 " d $end
$var wire 1 # q $end
$var wire 1 $ qn $end

$scope module i1 $end
$var wire 1 % gnd $end
$var wire 1 & vcc $end
$var wire 1 ' unknown $end
$var wire 1 ( devoe $end
$var wire 1 ) devclrn $end
$var wire 1 * devpor $end
$var wire 1 + ww_devoe $end
$var wire 1 , ww_devclrn $end
$var wire 1 - ww_devpor $end
$var wire 1 . ww_d $end
$var wire 1 / ww_clk $end
$var wire 1 0 ww_q $end
$var wire 1 1 ww_qn $end
$var wire 1 2 \clk~combout\ $end
$var wire 1 3 \d~combout\ $end
$var wire 1 4 \s1~regout\ $end
$var wire 1 5 \q~reg0_regout\ $end
$var wire 1 6 \ALT_INV_clk~combout\ $end
$var wire 1 7 \ALT_INV_s1~regout\ $end
$upscope $end
$upscope $end
$enddefinitions $end
#0
$dumpvars
0!
0"
0#
1$
0%
1&
x'
1(
1)
1*
1+
1,
1-
0.
0/
00
11
02
03
04
05
16
17
$end
#45000
1"
1.
13
#90000
0"
0.
03
#100000
1!
1/
12
06
#135000
1"
1.
13
#180000
0"
0.
03
#200000
0!
0/
02
16
#225000
1"
1.
13
#270000
0"
0.
03
#300000
1!
1/
12
06
#315000
1"
1.
13
#360000
0"
0.
03
#400000
0!
0/
02
16
#405000
1"
1.
13
#450000
0"
0.
03
#495000
1"
1.
13
#500000
1!
1/
12
06
#540000
0"
0.
03
#585000
1"
1.
13
#600000
0!
0/
02
16
14
07
01
0$
#630000
0"
0.
03
#675000
1"
1.
13
#700000
1!
1/
12
06
15
10
1#
#720000
0"
0.
03
#765000
1"
1.
13
#800000
0!
0/
02
16
#810000
0"
0.
03
#855000
1"
1.
13
#900000
0"
1!
0.
1/
12
03
06
#945000
1"
1.
13
#990000
0"
0.
03
